{
    "@class": "com.kony.gen.viz.model.component.KVizButton",
    "DNDConfig": null,
    "__parentReadjusting__": false,
    "_height_": {
        "type": "string",
        "value": "40dp"
    },
    "_left_": {
        "type": "string",
        "value": "60dp"
    },
    "_margin_": [
        6,
        6,
        6,
        6
    ],
    "_padding_": [
        0,
        0,
        0,
        0
    ],
    "_skin_": "sec79de8c04843c9a0a384ab15f91e25",
    "_text_": "SIGN IN",
    "_top_": {
        "type": "string",
        "value": "337dp"
    },
    "_width_": {
        "type": "string",
        "value": "120dp"
    },
    "canUpdateUI": true,
    "centerx": {
        "type": "string",
        "value": "31.48%"
    },
    "containerweight": 100,
    "contentalignment": 5,
    "displaytext": true,
    "focusskin": "sa18c4e31a4d4822bb0562c47a2c9f77",
    "id": "btnSignIn",
    "info": null,
    "isvisible": true,
    "kuid": "c7048905e3a746949fb23a02265a3ea6",
    "name": "kony.ui.Button",
    "parent": "contStart",
    "pf": "frmStart",
    "wType": "Button",
    "zindex": 1
}