{
    "@class": "com.kony.gen.viz.model.component.KVizRichText",
    "DNDConfig": null,
    "__parentReadjusting__": false,
    "_height_": {
        "type": "string",
        "value": "33dp"
    },
    "_left_": {
        "type": "string",
        "value": "118dp"
    },
    "_margin_": [
        0,
        0,
        0,
        0
    ],
    "_padding_": [
        0,
        0,
        0,
        0
    ],
    "_skin_": "s725c873161245269fc9d01c94043903",
    "_text_": "Here can be out tagline!",
    "_top_": {
        "type": "string",
        "value": "210dp"
    },
    "_width_": {
        "type": "string",
        "value": "100%"
    },
    "_wrapping_": 2,
    "canUpdateUI": true,
    "centerx": {
        "type": "string",
        "value": "49.97%"
    },
    "containerweight": 100,
    "contentalignment": 5,
    "id": "RichText0e6835709832c4f",
    "info": null,
    "isvisible": true,
    "kuid": "e1c4ae9d69064aebb5b3f2ed48ee353a",
    "name": "kony.ui.RichText",
    "parent": "contStart",
    "pf": "frmStart",
    "wType": "RichText",
    "widgetalignment": 5,
    "zindex": 1
}