{
    "@class": "com.kony.gen.viz.model.component.KVizButton",
    "DNDConfig": null,
    "__parentReadjusting__": false,
    "_height_": {
        "type": "string",
        "value": "50dp"
    },
    "_left_": {
        "type": "string",
        "value": "50dp"
    },
    "_margin_": [
        6,
        6,
        6,
        6
    ],
    "_padding_": [
        0,
        0,
        0,
        0
    ],
    "_skin_": "s3c4ff7592284efabd393a7e900a29a7",
    "_text_": "SIGN UP",
    "_top_": {
        "type": "string",
        "value": "420dp"
    },
    "_width_": {
        "type": "string",
        "value": "260dp"
    },
    "canUpdateUI": true,
    "containerweight": 100,
    "contentalignment": 5,
    "displaytext": true,
    "focusskin": "sa18c4e31a4d4822bb0562c47a2c9f77",
    "id": "btnSignUp",
    "info": null,
    "isvisible": true,
    "kuid": "f7d6cd9074154b9bb4cac9ad9696c5d5",
    "name": "kony.ui.Button",
    "parent": "contSignUp",
    "pf": "frmSignUp",
    "wType": "Button",
    "zindex": 1
}