{
    "appidkey": "OurCinemaApp",
    "mwaddrkey": "",
    "isNewAppWithRespectToAndroidPackageName": "",
    "apppackagekey": "",
    "appaddrkey": "",
    "appnamekey": "OurCinemaApp",
    "currentgaversion": "8.0.0",
    "appversionkey": "1.0.0",
    "project.type": "js",
    "startupformkey": "f151acaaf53f494787dd790f7e1e6990",
    "enableCustomData": false,
    "vendornamekey": "KonyLabs",
    "createdgaversion": "8.0.0",
    "konyVizVersion": "8.0.0",
    "isDpScaleFactor": true,
    "isMVC": true,
    "referenceWidth": "375",
    "winmobileguidkey": "",
    "APPLICATION_THEME": "default",
    "build": "debug",
    "mastersProperties": {
        "mastersVersion": "2.0.0"
    },
    "project_version": "sprint29",
    "mwportkey": "",
    "category": "app",
    "createdVizVersion": "8.0.0",
    "mwhttpsportkey": "",
    "defaulttheme": "defaultTheme",
    "nativeContainerProperties": {
        "isModified": true,
        "isEnableJSContainer": true,
        "isEnableJSContainerAndroid": true,
        "isEnableJSContaineriOS": false
    },
    "appmenu": {
        "mobile": {
            "data": [
                {
                    "id": "appmenuitemid1",
                    "title": "Item 1",
                    "icon": {
                        "default": "option1.png"
                    },
                    "kuid": "b9782d7e3a8d4df3a2cfc7046540ec36",
                    "android": {
                        "showAsFlag": 0
                    }
                },
                {
                    "id": "appmenuitemid2",
                    "title": "Item 2",
                    "icon": {
                        "default": "option2.png"
                    },
                    "kuid": "a87abc1ecd434c688bb51b2f82d58164",
                    "android": {
                        "showAsFlag": 0
                    }
                },
                {
                    "id": "appmenuitemid3",
                    "title": "Item 3",
                    "icon": {
                        "default": "option3.png"
                    },
                    "kuid": "c9cb6c9fdc3a47299d47467d433d314f",
                    "android": {
                        "showAsFlag": 0
                    }
                },
                {
                    "id": "appmenuitemid4",
                    "title": "Item 4",
                    "icon": {
                        "default": "option4.png"
                    },
                    "kuid": "b668a7132cdc4c8daff71397fa036030",
                    "android": {
                        "showAsFlag": 0
                    }
                }
            ]
        },
        "tablet": {
            "data": [
                {
                    "id": "appmenuitemid1",
                    "title": "Item 1",
                    "icon": {
                        "default": "option1.png"
                    },
                    "android": {
                        "showAsFlag": 0
                    },
                    "kuid": "a9976bafdcb44359b1921e50dda50d33",
                    "windows8": {
                        "position": "BOTTOM_LEFT",
                        "appBarButtonStyle": "No Style"
                    }
                },
                {
                    "id": "appmenuitemid2",
                    "title": "Item 2",
                    "icon": {
                        "default": "option2.png"
                    },
                    "android": {
                        "showAsFlag": 0
                    },
                    "kuid": "f392f62108674fa2a37af6f35b2bbf2e",
                    "windows8": {
                        "position": "BOTTOM_LEFT",
                        "appBarButtonStyle": "No Style"
                    }
                },
                {
                    "id": "appmenuitemid3",
                    "title": "Item 3",
                    "icon": {
                        "default": "option3.png"
                    },
                    "android": {
                        "showAsFlag": 0
                    },
                    "kuid": "d4087bb47c0c41a2a0fb6610e58ffaf3",
                    "windows8": {
                        "position": "BOTTOM_LEFT",
                        "appBarButtonStyle": "No Style"
                    }
                },
                {
                    "id": "appmenuitemid4",
                    "title": "Item 4",
                    "icon": {
                        "default": "option4.png"
                    },
                    "android": {
                        "showAsFlag": 0
                    },
                    "kuid": "f3cc98a0ab0849af8c5696182d0736f0",
                    "windows8": {
                        "position": "BOTTOM_LEFT",
                        "appBarButtonStyle": "No Style"
                    }
                }
            ]
        },
        "desktop": {
            "data": [
                {
                    "id": "appmenuitemid1",
                    "title": "Item 1",
                    "icon": {
                        "default": "option1.png"
                    },
                    "kuid": "j258ac061a0c4f55a0e7457a63599046"
                },
                {
                    "id": "appmenuitemid2",
                    "title": "Item 2",
                    "icon": {
                        "default": "option2.png"
                    },
                    "kuid": "b16c020e2cad4aefa983e3734a8f7b83"
                },
                {
                    "id": "appmenuitemid3",
                    "title": "Item 3",
                    "icon": {
                        "default": "option3.png"
                    },
                    "kuid": "f60676eee3fe4cae9286b4bc14f16da7"
                },
                {
                    "id": "appmenuitemid4",
                    "title": "Item 4",
                    "icon": {
                        "default": "option4.png"
                    },
                    "kuid": "a84aa4e899714816afedb3994a3fc83c"
                }
            ]
        },
        "skin": null,
        "focusSkin": null,
        "focusskin": null,
        "osVersion": "iOS7",
        "osPlatform": "",
        "wType": "Appmenu"
    },
    "export.type": "studioviz"
}